anyio==4.8.0
arrow==1.3.0
attrs==25.1.0
Automat==24.8.1
backoff==2.2.1
boto3==1.37.13
botocore==1.37.13
cached-property==2.0.1
cachetools==5.5.2
certifi==2025.1.31
cffi==1.17.1
charset-normalizer==3.4.1
constantly==23.10.4
cryptography==44.0.2
decorator==5.2.1
durationpy==0.9
fqdn==1.5.1
gitdb==4.0.12
GitPython==3.1.44
google-auth==2.38.0
gql==3.5.0
graphql-core==3.2.6
gssapi==1.9.0
hyperlink==21.0.0
idna==3.10
incremental==24.7.2
isoduration==20.11.0
Jinja2==3.1.6
jmespath==1.0.1
jsonpointer==3.0.0
# jsonschema >= 4.18 requires rpds-py which requires Rust
# the prebuild wheels provide manylinux_2_17_x86_64 while RHEL6 only
# supports manylinux_2_12_x86_64
jsonschema==4.17.3
kubernetes==32.0.1
# lxml 5 installation is broken on RHEL6
# https://gitlab.com/cki-project/infrastructure/-/issues/305
lxml==4.9.4 ; python_version < '3.11'
lxml==5.3.1 ; python_version >= '3.11'
MarkupSafe==3.0.2
multidict==6.1.0
oauthlib==3.2.2
pika==1.3.2
pip==25.0.1
ply==3.11
prometheus_client==0.21.1
propcache==0.3.0
pyasn1==0.6.1
pyasn1_modules==0.4.1
pycparser==2.22
pyrsistent==0.20.0
python-dateutil==2.9.0.post0
python-gitlab==5.6.0
PyYAML==6.0.2
requests==2.32.3
requests-gssapi==1.3.0
requests-oauthlib==2.0.0
requests-toolbelt==1.0.0
rfc3339-validator==0.1.4
rfc3987==1.3.8
rsa==4.9
ruamel.yaml==0.18.10
ruamel.yaml.clib==0.2.12
s3transfer==0.11.4
sentry-sdk==2.22.0
setuptools==75.9.1
six==1.17.0
smmap==5.0.2
sniffio==1.3.1
Twisted==24.11.0
types-python-dateutil==2.9.0.20241206
typing_extensions==4.12.2
uri-template==1.3.0
urllib3==2.3.0
watchdog==6.0.0
webcolors==24.11.1
websocket-client==1.8.0
xmltodict==0.14.2
yarl==1.18.3
zope.interface==7.2
