{
  "$schema": "https://docs.renovatebot.com/renovate-schema.json",
  "enabledManagers": [
    "pip_requirements"
  ],
  "pip_requirements": {
    "fileMatch": "constraints.txt"
  },
  "packageRules": [
    {
      "groupName": "pip",
      "matchPackageNames": [
        "pip"
      ],
      "changelogUrl": "https://github.com/pypa/pip/blob/main/NEWS.rst"
    },
    {
      "groupName": "pyasn1 packages",
      "matchPackageNames": [
        "/^pyasn1/"
      ]
    },
    {
      "groupName": "AWS SDK modules",
      "matchPackageNames": [
        "/^boto/",
        "s3transfer"
      ]
    },
    {
      "groupName": "jsonschema packages",
      "matchPackageNames": [
        "attrs",
        "fqdn",
        "idna",
        "isoduration",
        "jsonpointer",
        "jsonschema-specifications",
        "jsonschema",
        "pyrsistent",
        "referencing",
        "rfc3339-validator",
        "rfc3987",
        "rpds-py",
        "uri-template",
        "webcolors"
      ]
    },
    {
      "groupName": "python-gitlab's GraphQL dependencies",
      "matchPackageNames": [
        "python-gitlab",
        "gql",
        "graphql-core"
      ]
    },
    {
      "matchPackageNames": [
        "lxml"
      ],
      "matchCurrentVersion": "<5",
      "allowedVersions": "<5",
      "groupName": "lxml (compat)"
    }
  ],
  "postUpgradeTasks": {
    "commands": [
      "/code/update_pipeline_constraints.sh"
    ]
  },
  "prBodyNotes": [
    "All Renovate MRs are tracked by #227."
  ]
}
